%YAML 1.1
%TAG !u! tag:unity3d.com,2011:
--- !u!114 &11400000
MonoBehaviour:
  m_ObjectHideFlags: 0
  m_CorrespondingSourceObject: {fileID: 0}
  m_PrefabInstance: {fileID: 0}
  m_PrefabAsset: {fileID: 0}
  m_GameObject: {fileID: 0}
  m_Enabled: 1
  m_EditorHideFlags: 0
  m_Script: {fileID: 11500000, guid: 848409ee8ba454f42a5ddff137688a27, type: 3}
  m_Name: logos
  m_EditorClassIdentifier: 
  m_GuidLow: 5700763239614484409
  m_GuidHigh: 17089837511002953389
  m_DataStore:
    m_Storage: []
  m_Images:
  - m_SerializedGuid:
      m_GuidLow: 4703961528582567109
      m_GuidHigh: 18379388183390925992
    m_SerializedTextureGuid:
      m_GuidLow: 6083559407137039867
      m_GuidHigh: 13419311705358518776
    m_Size: {x: 0.06, y: 0.06}
    m_SpecifySize: 1
    m_Name: cocktail
    m_Texture: {fileID: 0}
